seqnames	start	end	width	strand	revmap	nfrags	covfrags	cov
chr14	47670322	47682115	11794	*	1:21	21	2	0.0952380952380952
chr14	47843251	47851620	8370	*	22:32	11	1	0.0909090909090909
chr14	47871639	47872795	1157	*	33:34	2	0	0
chr14	47872805	47881313	8509	*	35:60	26	2	0.0769230769230769
chr14	47891761	47897118	5358	*	61:74	14	1	0.0714285714285714
chr14	47897128	47904040	6913	*	75:89	15	2	0.133333333333333
chr14	47913841	47926113	12273	*	90:114	25	2	0.08
chr14	47926122	47927399	1278	*	115:118	4	0	0
chr14	48017519	48029401	11883	*	119:144	26	3	0.115384615384615
chr14	48083088	48091096	8009	*	145:159	15	1	0.0666666666666667
chr14	48160437	48176831	16395	*	160:188	29	3	0.103448275862069
chr14	48358858	48370375	11518	*	189:217	29	2	0.0689655172413793
chr14	48378485	48388330	9846	*	218:246	29	3	0.103448275862069
chr14	48444636	48454243	9608	*	247:264	18	3	0.166666666666667
chr14	48501158	48508544	7387	*	265:281	17	7	0.411764705882353
chr14	48508554	48509386	833	*	282:283	2	0	0
chr14	48513595	48518074	4480	*	284:292	9	0	0
chr14	48522789	48526580	3792	*	293:301	9	1	0.111111111111111
chr14	48529399	48535241	5843	*	302:312	11	1	0.0909090909090909
chr14	48539907	48541909	2003	*	313:316	4	1	0.25
chr14	48569897	48581555	11659	*	317:345	29	7	0.241379310344828
chr14	48677142	48685444	8303	*	346:360	15	7	0.466666666666667
chr14	48706526	48715842	9317	*	361:381	21	10	0.476190476190476
chr14	48729957	48734455	4499	*	382:392	11	3	0.272727272727273
chr14	48767659	48772048	4390	*	393:401	9	3	0.333333333333333
chr14	48788536	48801211	12676	*	402:430	29	6	0.206896551724138
chr14	48803439	48805795	2357	*	431:436	6	0	0
chr14	48813591	48819786	6196	*	437:448	12	2	0.166666666666667
chr14	48822401	48824245	1845	*	449:453	5	2	0.4
chr14	48900901	48916807	15907	*	454:492	39	8	0.205128205128205
chr14	48918623	48939162	20540	*	493:537	45	11	0.244444444444444
chr14	49010642	49014658	4017	*	538:543	6	1	0.166666666666667
chr14	49081098	49088364	7267	*	544:558	15	3	0.2
chr14	49089569	49092459	2891	*	559:561	3	1	0.333333333333333
chr14	49127840	49128798	959	*	562:563	2	2	1
chr14	49170380	49189848	19469	*	564:604	41	4	0.0975609756097561
chr14	49199898	49209698	9801	*	605:633	29	1	0.0344827586206897
chr14	49239218	49249707	10490	*	634:662	29	1	0.0344827586206897
chr14	49291761	49302925	11165	*	663:691	29	2	0.0689655172413793
chr14	49392639	49413183	20545	*	692:728	37	2	0.0540540540540541
chr14	49563586	49575309	11724	*	729:758	30	2	0.0666666666666667
chr14	49577905	49587630	9726	*	759:787	29	1	0.0344827586206897
