seqnames	start	end	width	strand	revmap	nfrags	covfrags	cov
chr17	44057335	44087601	30267	*	200:256	57	18	0.315789473684211
chr17	44127385	44142699	15315	*	257:285	29	13	0.448275862068966
chr17	44215306	44227681	12376	*	286:309	24	14	0.583333333333333
chr17	44276977	44284552	7576	*	310:319	10	7	0.7
chr17	44308802	44312332	3531	*	320:322	3	2	0.666666666666667
chr17	44318111	44321598	3488	*	328:337	10	6	0.6
chr17	44367986	44375651	7666	*	339:354	16	9	0.5625
chr17	44391891	44399499	7609	*	355:359	5	3	0.6
chr17	44399509	44407222	7714	*	360:376	17	8	0.470588235294118
chr17	44457989	44464173	6185	*	385:390	6	4	0.666666666666667
chr17	44541858	44547939	6082	*	393:406	14	4	0.285714285714286
